# Blender v2.66 (sub 1) OBJ File: ''
# www.blender.org
mtllib bottle_rv_size.mtl
o body.prm
v 10.829592 1.170001 -2.970000
v 10.829592 1.440000 -3.420000
v 9.749593 1.530001 -2.970001
v 10.829592 1.440000 -4.500000
v 10.829592 1.170000 -4.860000
v 9.749593 1.530000 -4.860000
v 10.829592 1.170001 3.960001
v 10.829592 1.440002 3.599998
v 9.749594 1.620002 3.869999
v 10.829592 1.440002 2.429998
v 10.829592 1.170002 2.069998
v 9.749594 1.530002 2.070000
v 4.889593 1.170001 -2.970001
v 5.969593 1.530000 -2.970001
v 4.889594 1.440000 -3.420001
v 4.889594 1.440000 -4.500000
v 5.969593 1.530000 -4.860000
v 4.889593 1.170000 -4.860000
v 4.889593 1.170001 3.960000
v 5.969592 1.620001 3.870000
v 4.889594 1.440002 3.599998
v 4.889593 1.440002 2.429998
v 5.969592 1.530001 2.070000
v 4.889593 1.170002 2.069998
v 9.479591 3.420000 -1.260000
v 9.749592 3.510000 -0.720000
v 8.939592 3.600000 -0.990000
v 9.929592 3.330000 -0.990000
v 8.939592 3.420001 -1.350000
v 6.779360 3.601007 -0.990509
v 5.969708 3.509496 -0.719745
v 6.239708 3.419496 -1.259746
v 6.779708 3.419497 -1.349746
v 5.789360 3.331008 -0.990510
v 8.939592 2.340000 -2.880000
v 8.759592 2.250000 -3.690000
v 9.749592 2.340000 -2.610000
v 6.779593 2.340000 -2.880001
v 5.969592 2.340000 -2.610001
v 6.959592 2.250000 -3.690000
v 10.649591 0.270001 0.450000
v 10.739592 0.090001 2.069999
v 10.649591 0.270001 1.709999
v 5.069593 0.270002 0.450000
v 5.069593 0.270002 1.709998
v 4.979593 0.090001 2.069999
v 9.749593 0.090000 -4.860000
v 10.829592 0.090000 -4.860000
v 10.739593 0.090000 -6.120000
v 10.289593 0.090000 -6.390000
v 8.759593 0.090000 -6.839999
v 4.889593 0.090000 -4.860000
v 5.969593 0.090000 -4.860000
v 4.979593 0.090000 -6.120000
v 5.429593 0.090000 -6.390000
v 6.959593 0.090000 -6.840000
v 10.829593 1.260000 -2.610000
v 10.739592 1.980000 -1.800000
v 10.649592 1.980000 -3.240000
v 4.889593 1.260001 -2.610001
v 5.069593 1.980000 -3.240000
v 4.979592 1.980000 -1.800001
v 5.609593 1.890000 -5.940001
v 5.339593 1.800000 -5.940001
v 5.699593 1.800000 -6.210001
v 10.019593 1.800000 -6.210000
v 10.379593 1.800000 -5.940000
v 10.109592 1.890000 -5.940000
v 9.749593 0.090002 3.960000
v 9.749593 0.090001 2.070000
v 9.749593 0.090000 -2.970000
v 10.829592 0.090001 -2.970000
v 10.739592 0.090001 2.069999
v 10.739592 0.270001 3.960001
v 5.969591 0.090001 3.960000
v 5.969592 0.090001 2.070000
v 5.969592 0.090000 -2.970001
v 4.889594 0.090001 -2.970001
v 4.979593 0.090001 2.069999
v 4.979592 0.270001 3.960000
v 10.379593 2.160000 -3.420000
v 10.379593 2.250000 -1.980000
v 5.339593 2.160000 -3.420001
v 5.339592 2.250000 -1.980001
v 8.939592 2.340000 -2.880000
v 9.749592 2.340000 -2.610000
v 6.779593 2.340000 -2.880001
v 5.969592 2.340000 -2.610001
v 5.339592 2.250000 -1.980001
v 10.379593 2.250000 -1.980000
v 10.829592 0.090001 -2.970000
v 10.649591 0.270001 -2.520000
v 10.829592 1.170002 2.069998
v 10.829592 1.170001 -2.970000
v 10.829592 1.260001 1.709999
v 10.649591 0.270001 0.450000
v 10.649591 0.270001 1.709999
v 10.829592 1.260001 1.709999
v 10.829592 1.260001 0.449999
v 10.649591 1.260001 4.320000
v 10.829592 1.440002 3.599998
v 10.829592 1.170001 3.960001
v 10.559591 2.070000 3.779999
v 10.649591 2.070000 2.249999
v 10.829592 1.440002 2.429998
v 10.649591 0.270001 -2.520000
v 10.829593 1.260000 -2.610000
v 10.829592 1.440000 -3.420000
v 10.649592 1.980000 -3.240000
v 10.739593 1.170000 -6.120000
v 10.739593 1.260000 -5.310000
v 10.829592 1.170000 -4.860000
v 10.829592 1.440000 -4.500000
v 10.559592 1.980000 -4.590000
v 4.889594 0.090001 -2.970001
v 5.069593 0.270001 -2.520000
v 4.889593 1.170002 2.069998
v 4.889593 1.170001 -2.970001
v 4.889593 1.260001 1.709999
v 5.069593 0.270002 0.450000
v 4.889593 1.260001 0.450000
v 4.889593 1.260001 1.709999
v 5.069593 0.270002 1.709998
v 5.069592 1.260001 4.320000
v 4.889593 1.170001 3.960000
v 4.889594 1.440002 3.599998
v 5.159593 2.070001 3.780000
v 5.069592 2.070001 2.249999
v 4.889593 1.440002 2.429998
v 5.069593 0.270001 -2.520000
v 4.889593 1.260001 -2.610001
v 4.889594 1.440000 -3.420001
v 5.069593 1.980000 -3.240000
v 4.979772 1.170000 -6.120000
v 4.979593 1.260000 -5.310000
v 4.889594 1.440000 -4.500000
v 4.889593 1.170000 -4.860000
v 5.159594 1.980000 -4.590001
v 5.159592 1.170000 5.310000
v 6.509591 1.170000 5.490000
v 5.159592 0.630001 5.220000
v 6.509592 0.450000 5.400001
v 10.749983 2.340000 -1.440000
v 10.333790 2.340000 -1.800000
v 10.333790 2.340000 -1.440000
v 10.243790 2.610000 -1.440000
v 10.749983 2.610000 -1.350000
v 4.968999 2.340000 -1.440000
v 5.361148 2.340000 -1.440000
v 5.361148 2.340000 -1.800001
v 5.451148 2.610000 -1.440000
v 4.968999 2.610000 -1.350001
v 9.209591 0.450000 5.400001
v 10.559591 0.630000 5.220001
v 10.559591 1.170000 5.310000
v 10.379591 1.260001 5.130001
v 10.559591 1.170000 5.310000
v 9.209591 1.170000 5.490000
v 9.209591 1.170000 5.490000
v 9.119591 1.260000 5.310000
v 6.599591 1.260000 5.310000
v 6.509591 1.170000 5.490000
v 5.339591 1.260000 5.130000
v 5.159592 1.170000 5.310000
v 10.379591 1.260000 5.130001
v 10.289591 2.070000 5.040001
v 10.649591 1.260001 4.320000
v 10.559591 2.070000 3.779999
v 10.739592 1.980000 0.450000
v 10.649591 2.070000 2.249999
v 10.289593 1.170000 -6.390000
v 10.109592 1.260000 -6.300000
v 10.289593 1.170000 -6.390000
v 10.559593 1.260000 -6.030000
v 10.739593 1.170000 -6.120000
v 10.559593 1.260000 -6.030000
v 10.739593 1.260000 -5.310000
v 10.559592 1.980000 -4.590000
v 5.339591 1.260000 5.130000
v 5.069592 1.260001 4.320000
v 5.429591 2.070000 5.040000
v 5.159593 2.070001 3.780000
v 4.979592 1.980000 0.450000
v 5.069592 2.070001 2.249999
v 5.429593 1.170000 -6.390001
v 5.609593 1.260000 -6.300000
v 5.159593 1.260000 -6.030001
v 5.429593 1.170000 -6.390001
v 4.979772 1.170000 -6.120000
v 5.159593 1.260000 -6.030001
v 4.979593 1.260000 -5.310000
v 5.159594 1.980000 -4.590001
v 5.429593 2.070000 -4.500001
v 10.289593 2.070000 -4.500000
v 7.049592 2.160000 -4.770000
v 8.669593 2.160000 -4.770000
v 6.599591 2.070000 5.220000
v 6.599591 1.260000 5.310000
v 9.119591 2.070000 5.220000
v 9.119591 1.260000 5.310000
v 6.599591 2.070000 5.220000
v 5.609591 2.520000 5.220000
v 6.689591 2.610000 5.400001
v 5.429591 2.070000 5.040000
v 9.119591 2.070000 5.220000
v 9.029591 2.610000 5.400001
v 10.109591 2.520000 5.220001
v 10.289591 2.070000 5.040001
v 5.429591 2.340000 4.679999
v 5.609591 2.520000 5.220000
v 10.109591 2.520000 5.220001
v 10.289591 2.340000 4.680001
v 9.029592 2.520000 4.680000
v 9.029591 2.610000 5.400001
v 6.689591 2.610000 5.400001
v 6.689591 2.520000 4.680000
v 5.339592 2.340000 3.060000
v 7.049593 1.260000 -6.660001
v 6.959593 1.170000 -6.840000
v 6.959593 1.170000 -6.840000
v 8.759593 1.170000 -6.840000
v 8.669593 1.260000 -6.660001
v 8.759593 1.170000 -6.840000
v 10.379591 2.340000 3.060000
v 6.599591 2.520000 3.420000
v 9.119592 2.520000 3.420001
v 5.249592 2.250000 0.450000
v 10.469592 2.250000 0.450000
v 5.789592 3.420000 0.450000
v 5.789592 3.330000 1.980000
v 5.249592 2.250000 0.450000
v 5.339592 2.340000 3.060000
v 5.969592 3.600000 0.450000
v 5.969592 3.510000 1.710000
v 5.609593 1.260000 -6.300000
v 10.109592 1.260000 -6.300000
v 6.779592 3.420000 2.250000
v 6.599591 2.520000 3.420000
v 6.779592 3.600000 1.890000
v 8.939591 3.420000 2.250000
v 9.119592 2.520000 3.420001
v 10.379591 2.340000 3.060000
v 9.929592 3.330000 1.980000
v 10.469592 2.250000 0.450000
v 9.929592 3.420001 0.450000
v 9.749592 3.510000 1.710000
v 9.749592 3.600000 0.450000
v 8.939591 3.600000 1.890000
v 6.779592 3.690000 0.450000
v 8.939592 3.690000 0.450000
v 7.049593 1.890000 -6.390000
v 7.049593 1.800000 -6.570001
v 7.049593 1.260000 -6.660001
v 8.669593 1.890000 -6.390000
v 8.669593 1.800000 -6.570001
v 8.669593 1.260000 -6.660001
vt 0.886719 0.890625
vt 0.890625 0.886719
vt 0.894531 0.890625
vt 0.398438 0.451172
vt 0.400391 0.460938
vt 0.387695 0.459961
vt 0.000000 0.000000
vt 0.492766 0.319365
vt 0.437771 0.313255
vt 0.456103 0.307144
vt 0.425550 0.301034
vt 0.492766 0.307144
vt 0.307424 0.675976
vt 0.234098 0.608760
vt 0.289093 0.620981
vt 0.234098 0.486549
vt 0.307424 0.419333
vt 0.289093 0.474328
vt 0.299741 0.765385
vt 0.269189 0.753164
vt 0.501390 0.765385
vt 0.611379 0.753164
vt 0.586937 0.765385
vt 0.250857 0.881485
vt 0.348626 0.881485
vt 0.293631 0.832601
vt 0.406800 0.199219
vt 0.378906 0.199219
vt 0.398987 0.207031
vt 0.328125 0.484375
vt 0.335938 0.476562
vt 0.328125 0.476562
vt 0.252429 0.718750
vt 0.350198 0.718750
vt 0.252429 0.376559
vt 0.350198 0.376559
vt 0.492766 0.233818
vt 0.437771 0.233818
vt 0.394997 0.227707
vt 0.875000 0.414062
vt 0.875000 0.343750
vt 0.898438 0.355469
vt 0.898438 0.421875
vt 0.980469 0.421875
vt 0.980469 0.355469
vt 0.910156 0.667969
vt 0.960938 0.722656
vt 0.875000 0.726562
vt 0.715259 0.844822
vt 0.727480 0.887596
vt 0.764143 0.832601
vt 0.635822 0.844822
vt 0.623600 0.887596
vt 0.851562 0.433594
vt 0.863281 0.476562
vt 0.015625 0.871094
vt 0.214844 0.871094
vt 0.214844 0.941406
vt 0.011719 0.941406
vt 0.140867 0.753164
vt 0.055320 0.753164
vt 0.055320 0.826490
vt 0.140867 0.826490
vt 0.611379 0.826491
vt 0.269189 0.826491
vt 0.586937 0.832601
vt 0.501390 0.832601
vt 0.739701 0.826491
vt 0.238636 0.844822
vt 0.165309 0.844822
vt 0.110314 0.832601
vt 0.159199 0.881485
vt 0.681553 0.117304
vt 0.773211 0.153967
vt 0.681553 0.153967
vt 0.773211 0.105083
vt 0.779321 0.160078
vt 0.693774 0.160078
vt 0.789388 0.048828
vt 0.722656 0.054688
vt 0.722656 0.050781
vt 0.831279 0.054955
vt 0.819058 0.048844
vt 0.800727 0.054955
vt 0.922938 0.048844
vt 0.929048 0.054955
vt 0.956527 0.105083
vt 0.956527 0.153967
vt 0.768002 0.062821
vt 0.945208 0.068931
vt 0.774113 0.068931
vt 0.951319 0.062821
vt 0.972769 0.621679
vt 0.887221 0.658342
vt 0.887221 0.597236
vt 0.978879 0.658342
vt 0.964844 0.667969
vt 0.980469 0.468750
vt 0.164062 0.984375
vt 0.011719 0.984375
vt 0.386719 0.156250
vt 0.355469 0.085938
vt 0.355469 0.156250
vt 0.386719 0.085938
vt 0.788518 0.048844
vt 0.800781 0.054688
vt 0.066406 0.867188
vt 0.109375 0.832031
vt 0.062500 0.832031
vt 0.501390 0.881485
vt 0.623601 0.887596
vt 0.500087 0.882787
vt 0.347324 0.882787
vt 0.500087 0.833903
vt 0.160156 0.874498
vt 0.239593 0.886719
vt 0.166267 0.880608
vt 0.238636 0.893706
vt 0.179103 0.382670
vt 0.160156 0.492188
vt 0.160156 0.601562
vt 0.179103 0.712639
vt 0.336405 0.899817
vt 0.699219 0.160156
vt 0.777344 0.214844
vt 0.699219 0.214615
vt 0.777344 0.160156
vt 0.950417 0.160077
vt 0.950417 0.215072
vt 0.785432 0.251736
vt 0.712105 0.245625
vt 0.699884 0.214844
vt 0.944306 0.251736
vt 0.875000 0.718750
vt 0.960938 0.717674
vt 0.972769 0.750000
vt 0.820312 0.625000
vt 0.806810 0.700418
vt 0.769531 0.625000
vt 0.770146 0.712639
vt 0.769531 0.468750
vt 0.820312 0.468750
vt 0.678595 0.905928
vt 0.492188 0.085938
vt 0.492188 0.156250
vt 0.811860 0.073184
vt 0.921850 0.073184
vt 0.805750 0.067074
vt 0.927961 0.067074
vt 0.609375 0.156250
vt 0.609375 0.085938
vt 0.806809 0.394891
vt 0.770146 0.382670
vt 0.660156 0.718750
vt 0.683594 0.632812
vt 0.683594 0.460938
vt 0.501390 0.899817
vt 0.605269 0.973144
vt 0.501390 0.979254
vt 0.403586 0.973212
vt 0.515600 0.410033
vt 0.601148 0.422254
vt 0.515600 0.422254
vt 0.619479 0.410033
vt 0.367188 0.164062
vt 0.398987 0.164062
vt 0.725490 0.319425
vt 0.780485 0.264430
vt 0.792706 0.325536
vt 0.694937 0.252209
vt 0.071447 0.873170
vt 0.164062 0.878906
vt 0.171875 0.886719
vt 0.619479 0.691118
vt 0.613369 0.623902
vt 0.601148 0.678897
vt 0.637811 0.623902
vt 0.939359 0.325536
vt 0.951580 0.264430
vt 0.515600 0.678898
vt 0.515600 0.691119
vt 0.613525 0.624023
vt 0.636719 0.477295
vt 0.636963 0.624023
vt 0.613281 0.624023
vt 0.613281 0.477295
vt 0.613369 0.477249
vt 0.515600 0.477249
vt 0.515600 0.623903
vt 0.436180 0.422262
vt 0.417797 0.410018
vt 0.436163 0.678898
vt 0.417831 0.691119
vt 0.417797 0.477234
vt 0.417831 0.623903
vt 0.495068 0.307214
vt 0.641713 0.307180
vt 0.641737 0.319504
vt 0.495068 0.319435
vt 0.081334 0.394891
vt 0.050781 0.492188
vt 0.496094 0.207031
vt 0.406250 0.199146
vt 0.398438 0.206959
vt 0.496094 0.199219
vt 0.398438 0.163990
vt 0.496094 0.164062
vt 0.641762 0.307583
vt 0.495117 0.307617
vt 0.495117 0.234291
vt 0.641770 0.234291
vt 0.081334 0.700418
vt 0.050781 0.601562
vt 0.605469 0.199219
vt 0.605469 0.207031
vt 0.605469 0.164062
usemtl #00:00:0400
s 1
f 6/1 5/2 4/3
f 9/1 8/2 7/3
f 12/1 11/2 10/3
f 15/1 14/2 13/3
f 18/1 17/2 16/3
f 21/2 20/3 19/1
f 24/2 23/3 22/1
f 49/1 48/2 47/3
f 49/1 47/2 50/3
f 50/1 47/2 51/3
f 54/1 53/2 52/3
f 55/1 53/2 54/3
f 56/1 53/2 55/3
f 3/3 6/1 2/2
f 6/3 4/1 2/2
f 9/1 12/2 8/3
f 12/3 10/1 8/2
f 69/2 9/3 7/1
f 69/2 12/3 9/1
f 70/3 12/1 69/2
f 71/3 6/1 3/2
f 1/3 71/1 3/2
f 70/2 11/3 12/1
f 47/3 6/1 71/2
f 47/2 5/3 6/1
f 71/1 1/2 72/3
f 48/1 5/2 47/3
f 73/1 11/2 70/3
f 74/1 69/2 7/3
f 17/2 14/3 15/1
f 16/2 17/3 15/1
f 23/3 20/1 21/2
f 22/2 23/3 21/1
f 20/2 75/3 19/1
f 23/2 75/3 20/1
f 23/3 76/1 75/2
f 17/2 77/3 14/1
f 14/1 77/2 13/3
f 24/3 76/1 23/2
f 17/3 53/1 77/2
f 18/1 53/2 17/3
f 13/2 77/3 78/1
f 18/3 52/1 53/2
f 24/3 79/1 76/2
f 75/3 80/1 19/2
f 70/2 76/3 77/1
f 70/3 77/1 71/2
f 78/3 76/1 79/2
f 77/1 76/2 78/3
f 70/3 71/1 72/2
f 73/2 70/3 72/1
f 145/4 144/5 143/6
f 144/4 147/5 143/6
f 146/5 147/6 144/4
f 150/5 149/6 148/4
f 152/4 150/5 148/6
f 152/5 151/6 150/4
f 153/1 75/2 69/3
f 142/3 75/1 153/2
f 141/2 75/3 142/1
f 80/1 75/2 141/3
f 69/1 154/2 153/3
f 69/2 74/3 154/1
f 69/1 76/2 70/3
f 69/2 75/3 76/1
f 71/1 77/2 47/3
f 77/3 53/1 47/2
f 51/1 47/2 56/3
f 47/2 53/3 56/1
usemtl #00:00:0400_NONE
f 147/7 145/7 143/7
f 147/7 146/7 145/7
f 149/7 152/7 148/7
f 151/7 152/7 149/7
usemtl #00:00:0000
f 1/2 3/3 2/1
f 27/8 26/9 25/10
f 25/10 26/9 28/11
f 29/12 27/8 25/10
f 32/10 31/9 30/8
f 32/10 30/8 33/12
f 34/11 31/9 32/10
f 37/13 36/14 35/15
f 40/16 39/17 38/18
f 43/19 42/20 41/21
f 46/22 45/23 44/21
f 59/24 58/25 57/26
f 62/25 61/24 60/26
f 65/27 64/28 63/29
f 68/30 67/31 66/32
f 36/14 37/13 81/33
f 37/13 82/34 81/33
f 83/35 39/17 40/16
f 84/36 39/17 83/35
f 85/37 29/12 25/10
f 25/10 86/38 85/37
f 87/37 32/10 33/12
f 88/38 32/10 87/37
f 34/11 32/10 88/38
f 89/39 34/11 88/38
f 25/10 28/11 86/38
f 28/11 90/39 86/38
f 41/20 42/21 91/19
f 41/20 91/21 92/19
f 93/40 42/41 43/42
f 94/21 92/19 91/20
f 95/43 93/40 43/42
f 99/44 98/43 97/42 96/45
f 102/46 101/47 100/48
f 101/49 103/50 100/51
f 101/49 105/52 104/53
f 103/50 101/49 104/53
f 105/54 93/40 95/43
f 104/55 105/54 95/43
f 96/56 106/57 57/58
f 99/59 96/56 57/58
f 107/21 92/19 94/20
f 108/20 107/21 94/19
f 109/21 107/19 108/20
f 48/60 49/61 110/62 5/63
f 113/21 112/19 111/20
f 114/21 113/19 111/20
f 113/20 109/21 108/19
f 114/20 109/21 113/19
f 46/22 44/21 115/20
f 115/20 44/21 116/19
f 46/22 117/64 45/23
f 116/19 118/65 115/20
f 117/64 119/66 45/23
f 123/23 122/66 121/67 120/21
f 126/49 125/68 124/51
f 127/50 126/49 124/51
f 129/52 126/49 128/53
f 126/49 127/50 128/53
f 117/64 129/52 119/66
f 129/52 128/53 119/66
f 130/19 120/21 121/67 60/26
f 116/19 131/26 118/65
f 131/26 132/69 118/65
f 131/26 133/24 132/69
f 134/62 54/61 52/60 18/63
f 137/63 136/70 135/71
f 136/70 138/72 135/71
f 133/24 136/70 132/69
f 133/24 138/72 136/70
f 141/73 140/74 139/75
f 141/73 142/76 140/74
f 154/77 74/78 155/74
f 74/74 7/77 155/78
f 100/79 156/80 102/81
f 156/82 157/83 102/84
f 153/76 154/73 158/74
f 154/73 155/75 158/74
f 156/82 159/85 157/83
f 156/82 160/86 159/85
f 142/76 153/87 158/88 140/74
f 162/89 160/90 161/91
f 162/89 159/92 160/90
f 141/93 19/94 80/95
f 141/93 139/96 19/94
f 161/85 163/82 162/86
f 163/83 164/82 162/85
f 163/83 124/84 164/82
f 124/79 125/80 164/81
f 167/46 166/47 165/97
f 168/47 166/48 167/46
f 98/43 99/44 169/98
f 170/55 98/43 169/98
f 57/58 58/99 169/100 99/59
f 49/101 171/102 110/103
f 50/104 171/101 49/102
f 174/84 173/82 172/83
f 175/84 173/83 174/105
f 111/106 175/80 174/79
f 112/80 175/81 111/79
f 67/107 177/108 176/109
f 178/72 177/108 67/107
f 181/47 180/46 179/97
f 181/47 182/48 180/46
f 121/67 122/66 183/110
f 122/66 184/111 183/110
f 183/112 62/113 121/114
f 62/25 60/26 121/67
f 185/101 55/104 54/102 134/103
f 188/83 187/84 186/82
f 188/83 189/105 187/84
f 189/79 135/106 187/80
f 189/80 137/81 135/79
f 191/108 64/107 190/109
f 191/108 192/72 64/107
f 192/115 83/116 193/117
f 192/72 61/24 83/118
f 194/30 81/31 178/32
f 81/30 59/31 178/32
f 40/16 193/119 83/35
f 40/16 195/120 193/119
f 196/121 195/120 36/14
f 195/120 40/16 36/14
f 81/33 194/122 36/14
f 194/122 196/121 36/14
f 84/123 61/24 62/25
f 84/123 83/118 61/24
f 81/31 82/32 59/30
f 82/31 58/32 59/30
f 40/16 38/18 36/14
f 38/18 35/15 36/14
f 179/124 197/125 181/126
f 179/124 198/127 197/125
f 198/127 200/128 199/129 197/125
f 200/127 165/124 199/125
f 165/124 166/126 199/125
f 203/130 202/131 201/125
f 202/131 204/132 201/125
f 206/133 203/130 205/129
f 203/130 201/125 205/129
f 205/130 207/125 206/131
f 205/125 208/132 207/131
f 182/134 181/135 210/136
f 211/135 166/136 168/134
f 214/137 211/138 213/139
f 211/138 212/140 213/139
f 213/139 216/141 215/142 214/137
f 184/111 182/50 217/143
f 182/135 209/136 217/134
f 219/85 186/82 218/86
f 219/85 188/83 186/82
f 56/144 55/104 185/101 220/145
f 222/85 172/82 221/86
f 172/83 173/82 221/85
f 223/145 171/101 50/104 51/144
f 218/146 222/147 219/148
f 222/147 221/149 219/148
f 220/145 223/150 51/151 56/144
f 224/143 168/50 170/111
f 224/134 212/135 168/136
f 216/141 210/152 215/142
f 216/141 209/153 210/152
f 217/154 209/140 225/155
f 209/140 216/139 225/155
f 212/140 226/155 213/139
f 212/140 224/154 226/155
f 216/141 213/139 225/156
f 213/139 226/155 225/156
f 183/110 184/111 227/157
f 184/111 217/143 227/157
f 227/157 62/25 183/110
f 227/157 84/123 62/25
f 228/157 170/111 169/110
f 228/157 224/143 170/111
f 169/110 58/25 228/157
f 58/25 82/123 228/157
f 231/157 230/158 229/159
f 231/157 232/143 230/158
f 229/159 34/160 231/157
f 34/160 89/123 231/157
f 229/161 234/162 233/163
f 229/161 230/164 234/162
f 190/165 64/28 235/166
f 64/28 65/27 235/166
f 67/28 236/166 66/27
f 67/28 176/165 236/166
f 230/167 238/168 237/169
f 230/167 232/170 238/168
f 64/24 193/118 63/72
f 64/171 192/172 193/173
f 230/174 239/175 234/176
f 230/174 237/177 239/175
f 238/168 240/178 237/169
f 238/168 241/179 240/178
f 243/167 241/168 242/170
f 243/167 240/169 241/168
f 245/159 243/158 244/157
f 243/158 242/143 244/157
f 244/157 28/160 245/159
f 244/157 90/123 28/160
f 247/180 246/176 245/181
f 246/176 243/174 245/181
f 246/176 248/175 243/174
f 248/175 240/177 243/174
f 248/182 237/183 240/184
f 248/185 239/186 237/183
f 239/187 233/163 234/162
f 239/187 249/188 233/163
f 246/176 247/180 248/175
f 247/180 250/189 248/175
f 248/175 250/189 249/188 239/187
f 233/163 31/190 229/161
f 31/190 34/191 229/161
f 245/181 26/192 247/180
f 245/181 28/193 26/192
f 249/188 31/190 233/163
f 249/188 30/194 31/190
f 247/180 26/192 250/189
f 26/192 27/195 250/189
f 250/189 27/195 30/194 249/188
f 29/196 33/197 30/198 27/199
f 178/31 68/32 194/30
f 178/30 67/31 68/32
f 195/120 63/200 193/119
f 251/201 63/200 195/120
f 251/202 65/203 63/204
f 252/205 65/203 251/202
f 252/205 235/206 65/203
f 253/207 235/206 252/205
f 33/208 29/209 85/210 87/211
f 68/212 196/121 194/122
f 68/212 254/213 196/121
f 196/121 254/213 251/201 195/120
f 66/204 254/202 68/203
f 66/203 255/205 254/202
f 252/205 251/202 255/214
f 251/202 254/214 255/215
f 236/206 255/205 66/203
f 236/206 256/207 255/205
f 252/205 255/214 256/216 253/207
usemtl #00:00:0000_NONE
f 182/7 210/7 209/7
f 212/7 211/7 168/7
o Bottle.m
v 0.439278 8.901491 -0.439278
v 0.538273 5.326539 -0.538273
v 0.761233 5.326539 0.000000
v 0.621233 8.901491 0.000000
v 1.093734 4.148077 -1.093734
v 1.546773 4.148077 0.000000
v 1.427489 2.682139 -1.427489
v 2.018775 2.682139 0.000000
v 1.427489 -4.080101 -1.427489
v 2.018775 -4.080101 0.000000
v 0.000000 8.901488 0.000000
v 0.000000 8.901491 -0.621233
v 0.000000 5.326539 -0.761233
v 0.000000 4.148077 -1.546773
v 0.000000 2.682139 -2.018775
v 0.000000 -4.080101 -2.018775
v 0.000000 -4.080101 0.000000
v -0.439278 8.901491 -0.439278
v -0.538273 5.326539 -0.538273
v -1.093734 4.148077 -1.093734
v -1.427489 2.682139 -1.427489
v -1.427489 -4.080101 -1.427489
v -0.621233 8.901491 -0.000000
v -0.761233 5.326539 -0.000000
v -1.546773 4.148077 -0.000000
v -2.018775 2.682139 -0.000000
v -2.018775 -4.080101 -0.000000
v -0.439278 8.901491 0.439278
v -0.538273 5.326539 0.538273
v -1.093734 4.148077 1.093734
v -1.427489 2.682139 1.427489
v -1.427489 -4.080101 1.427489
v -0.000000 8.901491 0.621233
v -0.000000 5.326539 0.761233
v -0.000000 4.148077 1.546773
v -0.000000 2.682139 2.018775
v -0.000000 -4.080101 2.018775
v 0.439278 8.901491 0.439278
v 0.538273 5.326539 0.538273
v 1.093734 4.148077 1.093734
v 1.427489 2.682139 1.427489
v 1.427489 -4.080101 1.427489
vt 0.664062 0.414062
vt 0.667969 0.414062
vt 0.667969 0.417969
vt 0.664062 0.417969
usemtl #00:00:0000_dummy_a.bmp
s 1
f 258/217 257/218 260/219 259/220
f 259/220 262/217 261/218 258/219
f 262/217 264/218 263/219 261/220
f 264/220 266/217 265/218 263/219
f 260/218 257/219 268/220 267/217
f 257/219 258/220 269/217 268/218
f 258/220 261/217 270/218 269/219
f 261/220 263/217 271/218 270/219
f 271/217 263/218 265/219 272/220
f 266/220 273/217 272/218 265/219
f 268/220 269/217 275/218 274/219
f 269/217 270/218 276/219 275/220
f 270/220 271/217 277/218 276/219
f 278/220 277/217 271/218 272/219
f 267/217 268/218 274/219 279/220
f 274/219 275/220 280/217 279/218
f 275/220 276/217 281/218 280/219
f 276/220 277/217 282/218 281/219
f 277/218 278/219 283/220 282/217
f 283/219 278/220 272/217 273/218
f 279/219 280/220 285/217 284/218
f 280/219 281/220 286/217 285/218
f 281/217 282/218 287/219 286/220
f 287/220 282/217 283/218 288/219
f 289/220 267/217 279/218 284/219
f 289/219 284/220 285/217 290/218
f 285/217 286/218 291/219 290/220
f 286/217 287/218 292/219 291/220
f 292/217 287/218 288/219 293/220
f 293/218 288/219 283/220 273/217
f 289/219 290/220 295/217 294/218
f 290/219 291/220 296/217 295/218
f 296/220 291/217 292/218 297/219
f 298/217 297/218 292/219 293/220
f 289/218 294/219 260/220 267/217
f 294/220 295/217 259/218 260/219
f 295/220 296/217 262/218 259/219
f 296/217 297/218 264/219 262/220
f 264/220 297/217 298/218 266/219
f 293/218 273/219 266/220 298/217
f 258/217 257/218 260/219 259/220
f 259/220 262/217 261/218 258/219
f 262/217 264/218 263/219 261/220
f 264/220 266/217 265/218 263/219
f 260/218 257/219 268/220 267/217
f 257/219 258/220 269/217 268/218
f 258/220 261/217 270/218 269/219
f 261/220 263/217 271/218 270/219
f 271/217 263/218 265/219 272/220
f 266/220 273/217 272/218 265/219
f 268/220 269/217 275/218 274/219
f 269/217 270/218 276/219 275/220
f 270/220 271/217 277/218 276/219
f 278/220 277/217 271/218 272/219
f 267/217 268/218 274/219 279/220
f 274/219 275/220 280/217 279/218
f 275/220 276/217 281/218 280/219
f 276/220 277/217 282/218 281/219
f 277/218 278/219 283/220 282/217
f 283/219 278/220 272/217 273/218
f 279/219 280/220 285/217 284/218
f 280/219 281/220 286/217 285/218
f 281/217 282/218 287/219 286/220
f 287/220 282/217 283/218 288/219
f 289/220 267/217 279/218 284/219
f 289/219 284/220 285/217 290/218
f 285/217 286/218 291/219 290/220
f 286/217 287/218 292/219 291/220
f 292/217 287/218 288/219 293/220
f 293/218 288/219 283/220 273/217
f 289/219 290/220 295/217 294/218
f 290/219 291/220 296/217 295/218
f 296/220 291/217 292/218 297/219
f 298/217 297/218 292/219 293/220
f 289/218 294/219 260/220 267/217
f 294/220 295/217 259/218 260/219
f 295/220 296/217 262/218 259/219
f 296/217 297/218 264/219 262/220
f 264/220 297/217 298/218 266/219
f 293/218 273/219 266/220 298/217
