# 3ds Max Wavefront OBJ Exporter v0.97b - (c)2007 guruware
# File Created: 06.04.2016 20:28:26

#
# object Cylinder02
#

v  15.3878 4.0303 -32.4840
v  15.3942 -3.9527 -32.4840
v  10.1975 -2.6149 -45.7680
v  10.1932 2.6846 -45.7680
v  11.2584 -10.8693 -32.4840
v  7.4520 -7.2065 -45.7680
v  4.0884 -14.8663 -32.4840
v  2.6921 -9.8599 -45.7680
v  -4.1946 -14.8725 -32.4840
v  -2.8065 -9.8640 -45.7680
v  -11.3711 -10.8864 -32.4840
v  -7.5706 -7.2178 -45.7680
v  -15.5182 -3.9760 -32.4840
v  -10.3237 -2.6304 -45.7680
v  -15.5247 4.0070 -32.4840
v  -10.3280 2.6692 -45.7680
v  -11.3888 10.9236 -32.4840
v  -7.5824 7.2608 -45.7680
v  -4.2188 14.9205 -32.4840
v  -2.8226 9.9141 -45.7680
v  4.0641 14.9268 -32.4840
v  2.6761 9.9183 -45.7680
v  11.2407 10.9407 -32.4840
v  7.4402 7.2721 -45.7680
v  -0.0652 0.0271 -54.2683
v  -14.7359 -10.0516 -16.7870
v  -14.3676 -11.6286 -8.9355
v  -33.4263 -19.3803 -6.9647
v  -32.7126 -20.1823 -16.6702
v  -14.3200 -12.3850 -2.8929
v  -34.1686 -18.4314 0.3096
v  -55.8756 -22.1963 2.6619
v  -53.6914 -25.7191 -5.2818
v  -50.9946 -30.1120 -16.0410
v  -14.9679 -11.5521 -0.4756
v  -34.9778 -17.2391 2.7304
v  -15.7896 -9.9826 -2.0005
v  -35.4193 -16.4824 0.3006
v  -56.7998 -20.9184 2.0005
v  -57.0151 -20.4528 5.0144
v  -16.2633 -8.5295 -7.7843
v  -35.0586 -16.8403 -6.9768
v  -16.5264 -7.1246 -15.6998
v  -34.2694 -17.7626 -16.6789
v  -52.1857 -28.4692 -16.8785
v  -54.9198 -24.0230 -6.1554
v  -16.7162 -5.6999 -23.6194
v  -33.4256 -18.6991 -26.3830
v  -16.6397 -4.9368 -29.6770
v  -32.6107 -19.6590 -33.6637
v  -47.1884 -36.5093 -35.5470
v  -49.4079 -32.9592 -27.5940
v  -16.1037 -5.5168 -32.0061
v  -31.9079 -20.6517 -36.0957
v  -15.4576 -6.8692 -30.3948
v  -31.6049 -21.2269 -33.6717
v  -46.4365 -37.5499 -35.0352
v  -46.1290 -38.1353 -37.9824
v  -15.0505 -8.4230 -24.6309
v  -31.9893 -20.9341 -26.3845
v  -48.3173 -34.4655 -26.8400
v  -96.3076 -31.6918 4.1224
v  -110.3544 -36.4492 -0.0903
v  -108.6882 -47.3929 -6.7979
v  -92.8816 -40.2010 -4.6606
v  -113.2371 -41.4237 -2.1620
v  -115.4810 -51.8107 -7.2347
v  -112.1970 -64.7407 -15.3063
v  -104.3160 -60.3998 -15.7076
v  -87.8610 -51.0723 -16.4871
v  -96.7362 -31.2508 3.5104
v  -110.5532 -36.2855 -0.4494
v  -108.7582 -30.8203 2.4672
v  -97.0655 -28.2111 6.9425
v  -88.4813 -50.4302 -17.3523
v  -104.6142 -60.1494 -16.2323
v  -108.9743 -47.1552 -7.3085
v  -93.4867 -39.5768 -5.5160
v  -78.1091 -68.8657 -38.1275
v  -91.1022 -79.9923 -32.5532
v  -98.0655 -71.9880 -25.3428
v  -82.8844 -61.0522 -29.2143
v  -96.6030 -79.8233 -29.7711
v  -105.6724 -75.8858 -23.6865
v  -77.7310 -69.2609 -37.6135
v  -90.9215 -80.1468 -32.2429
v  -85.4979 -81.4837 -35.7765
v  -75.5689 -71.2939 -41.1174
v  -97.7940 -72.2183 -24.8713
v  -82.3196 -61.6397 -28.4374
v  -77.2071 -26.8371 3.8937
v  -73.9352 -32.8515 -4.8612
v  -69.7295 -40.6892 -16.7369
v  -77.8642 -26.0582 3.1471
v  -78.5860 -24.4906 6.4829
v  -70.6245 -39.6274 -17.7323
v  -74.8339 -31.7860 -5.8734
v  -63.0644 -53.5967 -38.3749
v  -66.3651 -47.5359 -29.5835
v  -62.5110 -54.2564 -37.7756
v  -61.7312 -55.8951 -41.0549
v  -65.5493 -48.5060 -28.6890
v  16.5057 -7.0498 -16.7870
v  17.7228 -5.9376 -8.9355
v  33.7632 -18.8288 -6.8715
v  34.0989 -17.7440 -16.5699
v  18.3727 -5.5110 -2.8929
v  33.3188 -19.9979 0.3951
v  47.8353 -36.8503 3.0226
v  49.6732 -33.0893 -4.8995
v  51.9712 -28.4138 -15.6321
v  17.9619 -6.4738 -0.4756
v  32.7051 -21.3182 2.8068
v  16.9836 -7.9574 -2.0005
v  32.2834 -22.0692 0.3718
v  47.2051 -38.2917 2.3520
v  46.9417 -38.7458 5.3639
v  15.9309 -9.0935 -7.7843
v  32.4150 -21.5301 -6.9022
v  14.8134 -10.0305 -15.6998
v  32.8154 -20.3191 -16.5964
v  51.1627 -30.2695 -16.4815
v  48.8377 -35.0040 -5.7854
v  13.6406 -10.9170 -23.6194
v  33.2001 -19.0538 -26.2922
v  12.9212 -11.2442 -29.6770
v  33.6168 -17.8166 -33.5648
v  55.3463 -21.6698 -35.1006
v  53.5032 -25.4751 -27.1696
v  13.1639 -10.5036 -32.0061
v  34.1135 -16.6897 -35.9892
v  14.0385 -9.2763 -30.3948
v  34.4500 -16.1506 -33.5613
v  55.8596 -20.4964 -34.5813
v  56.1793 -19.9024 -37.5256
v  15.2151 -8.1439 -24.6309
v  34.3865 -16.6767 -26.2774
v  54.2452 -23.7748 -26.4047
v  76.7689 -69.8093 1.4325
v  89.3528 -78.7705 -3.2624
v  97.3050 -70.4897 -9.2393
v  82.1855 -61.1766 -6.1452
v  94.9859 -78.1605 -5.5521
v  104.6681 -73.6541 -10.5126
v  113.3444 -62.7604 -17.5244
v  105.4154 -58.5326 -16.9155
v  88.7660 -49.5179 -16.3447
v  76.6231 -70.3091 0.7384
v  89.3051 -78.9720 -3.6528
v  83.8906 -80.8703 -0.7072
v  74.2135 -72.6863 3.8483
v  88.5517 -50.2464 -17.3292
v  105.3406 -58.8394 -17.4874
v  97.2349 -70.7817 -9.7950
v  81.9784 -61.8843 -7.1166
v  98.7273 -28.8103 -35.1058
v  113.8756 -34.5407 -30.8821
v  111.2825 -45.6852 -25.0834
v  94.6153 -38.2296 -27.5119
v  116.8487 -39.5871 -28.9530
v  118.7534 -50.1074 -24.4278
v  98.8611 -28.3622 -34.5187
v  113.9228 -34.3522 -30.5430
v  111.9346 -28.6280 -33.1830
v  99.4459 -24.9645 -37.5516
v  111.3522 -45.4035 -24.5687
v  94.8128 -37.5633 -26.6261
v  63.2691 -53.7433 4.4812
v  66.4385 -47.4307 -4.0996
v  70.5838 -39.2325 -15.7511
v  62.9183 -54.6737 3.7020
v  62.0587 -56.2556 6.9981
v  70.1060 -40.5012 -16.7911
v  65.9590 -48.7038 -5.1565
v  77.4779 -25.8587 -37.0312
v  74.2848 -32.2216 -28.4152
v  77.7755 -25.0718 -36.4044
v  78.6679 -23.4062 -39.6411
v  74.7219 -31.0634 -27.4802
v  -1.7591 17.3223 -16.7870
v  -3.3628 17.7955 -8.9355
v  -0.9831 38.6911 -6.7508
v  -1.5470 38.4213 -16.4955
v  -4.0680 18.1305 -2.8929
v  -0.1562 38.8991 0.5731
v  5.7400 59.4160 3.4245
v  2.5705 59.3194 -4.9557
v  -1.2668 59.2230 -16.2515
v  -2.9963 18.2601 -0.4756
v  1.1579 39.0171 3.0622
v  -1.1748 18.1702 -2.0005
v  2.1546 39.0082 0.6794
v  7.3773 59.5688 2.9546
v  7.5258 59.5160 6.0079
v  0.3696 17.8466 -7.7843
v  2.0295 38.8352 -6.6126
v  1.7661 17.3707 -15.6998
v  1.3238 38.5602 -16.3609
v  0.8379 59.4218 -16.8427
v  4.7439 59.5236 -5.5750
v  3.1441 16.8235 -23.6194
v  0.5786 38.2449 -26.1131
v  3.7939 16.3812 -29.6770
v  -0.2939 37.9795 -33.4454
v  -6.3379 59.1912 -36.5044
v  -3.1285 59.3046 -28.1100
v  3.0055 16.2200 -32.0061
v  -1.3816 37.8538 -35.9344
v  1.4666 16.3493 -30.3948
v  -2.1518 37.8920 -33.5461
v  -7.6676 59.0675 -36.1483
v  -7.9730 59.1011 -39.1532
v  -0.1354 16.7785 -24.6309
v  -2.0718 38.1181 -26.2469
v  -5.0558 59.1236 -27.5818
v  20.4280 100.3164 4.4120
v  24.1243 115.1831 -1.5401
v  13.4982 118.6288 -8.0781
v  11.3187 101.1591 -4.3968
v  21.1460 119.9730 -3.8927
v  13.0190 126.6539 -9.1817
v  -0.1954 129.5775 -16.9245
v  -0.3620 120.5805 -16.5496
v  -0.6474 101.6469 -16.2219
v  21.0227 100.4275 3.7901
v  24.3482 115.2424 -1.9164
v  28.3310 111.2183 1.1725
v  23.8256 99.3730 7.2772
v  0.2167 101.8070 -17.1014
v  -0.0213 120.6683 -17.1001
v  13.8224 118.7136 -8.6135
v  12.1596 101.3157 -5.2661
v  -21.0179 100.9925 -37.7771
v  -24.6882 117.5107 -32.0756
v  -13.9580 120.1430 -25.5577
v  -11.8258 101.6704 -28.9258
v  -21.6824 122.4092 -29.8402
v  -13.4851 128.7896 -24.6561
v  -21.5479 100.8960 -37.2546
v  -24.8974 117.4582 -31.7495
v  -28.9122 113.1444 -34.7429
v  -24.4095 99.8596 -40.6929
v  -14.2705 120.0636 -25.0626
v  -12.6150 101.5255 -28.1360
v  13.0642 80.8079 5.6814
v  6.9427 80.7657 -3.5949
v  -0.9680 80.7463 -16.1478
v  14.1256 80.9557 5.0125
v  15.5704 80.8868 8.4786
v  0.4768 80.9478 -17.0374
v  8.3938 80.9681 -4.5010
v  -13.6968 80.8741 -38.8896
v  -7.5237 80.9187 -29.5725
v  -14.5915 80.7506 -38.3559
v  -16.1313 80.8074 -41.7725
v  -8.8415 80.7357 -28.7745
v  6.5976 15.8046 -0.3410
v  -10.2552 13.6654 -0.3410
v  -15.7679 5.4016 -0.3410
v  -17.4884 -3.6994 -0.3410
v  13.0011 10.5540 -0.3410
v  17.1292 3.8203 -0.3410
v  -5.8312 -15.0741 -0.3410
v  3.3764 -16.0971 -0.3410
v  12.1745 -13.0719 -0.3410
v  6.5242 -15.1321 -23.9110
v  -4.8401 -15.6916 -24.3044
v  -10.5292 -12.5283 -24.4760
v  4.1026 -15.9634 -24.0000
v  -16.8611 2.0561 -23.7990
v  -6.0041 15.3566 -24.4028
v  -16.3814 4.5933 -23.8640
v  -11.6678 12.2117 -24.1623
v  10.5727 12.7977 -24.1598
v  16.6250 -2.2022 -24.6515
v  12.2803 11.3956 -24.2892
v  16.6207 4.1812 -24.6303
v  9.4714 14.1873 -16.2754
v  12.8524 11.4109 -16.5499
v  17.2350 4.1656 -16.8734
v  17.2401 -0.2224 -16.8348
v  8.1952 15.3752 -8.4975
v  13.2267 11.2437 -8.8947
v  17.5821 4.0842 -9.1563
v  17.5860 1.7974 -9.1042
v  8.6856 -14.8285 -16.0062
v  3.9571 -16.4511 -16.2182
v  -5.3157 -15.9129 -16.5466
v  -9.2119 -13.7471 -16.6390
v  10.7467 -14.2763 -8.2202
v  3.7440 -16.6790 -8.5580
v  -5.7164 -15.8780 -8.8546
v  -7.7203 -14.7645 -8.8801
v  -17.5517 0.0719 -15.8925
v  -16.6212 4.9934 -16.0663
v  -11.5075 13.0333 -16.4296
v  -7.6302 15.1873 -16.5821
v  -17.9721 -1.9505 -8.1059
v  -16.5971 5.3219 -8.4054
v  -11.1576 13.6630 -8.7816
v  -9.1655 14.7705 -8.8423
# 301 vertices

vn 0.9114 0.2564 -0.3218
vn 0.9158 -0.2049 -0.3454
vn 0.7288 -0.2012 -0.6545
vn 0.7285 0.2024 -0.6545
vn 0.5306 -0.6623 -0.5290
vn 0.5288 -0.5457 -0.6501
vn 0.2193 -0.9223 -0.3181
vn 0.1922 -0.7390 -0.6457
vn -0.2386 -0.9245 -0.2973
vn -0.1910 -0.7393 -0.6457
vn -0.6255 -0.7086 -0.3266
vn -0.5279 -0.5466 -0.6500
vn -0.8330 -0.1479 -0.5332
vn -0.7285 -0.2024 -0.6545
vn -0.9082 0.2721 -0.3180
vn -0.7288 0.2012 -0.6545
vn -0.6685 0.6770 -0.3079
vn -0.5288 0.5457 -0.6501
vn -0.2737 0.9022 -0.3335
vn -0.1922 0.7390 -0.6457
vn 0.2872 0.7991 -0.5281
vn 0.1910 0.7393 -0.6457
vn 0.6720 0.6666 -0.3226
vn 0.5279 0.5466 -0.6500
vn -0.0000 -0.0000 -1.0000
vn -0.0552 -0.9828 -0.1762
vn -0.0643 -0.9813 -0.1812
vn 0.3609 -0.9147 0.1820
vn 0.4814 -0.8662 0.1338
vn -0.0522 -0.9892 0.1371
vn 0.2537 -0.8813 0.3987
vn 0.2131 -0.7364 0.6421
vn 0.2870 -0.7981 0.5298
vn 0.4118 -0.7542 0.5115
vn -0.1013 -0.3704 0.9233
vn 0.0369 0.0846 0.9957
vn -0.8444 0.2780 0.4580
vn -0.2402 0.9555 0.1712
vn -0.2386 0.9063 -0.3489
vn -0.0256 0.4991 0.8662
vn -0.8970 0.4063 0.1741
vn -0.3823 0.9141 -0.1350
vn -0.9112 0.4083 0.0546
vn -0.5041 0.8491 -0.1578
vn -0.4287 0.7370 -0.5225
vn -0.3132 0.8046 -0.5045
vn -0.9156 0.3970 0.0635
vn -0.6041 0.7695 -0.2074
vn -0.8830 0.4143 -0.2206
vn -0.6339 0.6723 -0.3824
vn -0.5242 0.5722 -0.6307
vn -0.5302 0.6523 -0.5417
vn -0.0909 0.0305 -0.9954
vn 0.1133 -0.0168 -0.9934
vn -0.0672 -0.7442 -0.6645
vn 0.7064 -0.6975 -0.1200
vn 0.6445 -0.6663 0.3750
vn 0.4414 -0.2752 -0.8541
vn -0.0704 -0.9600 -0.2710
vn 0.6009 -0.7892 0.1268
vn 0.5333 -0.6815 0.5012
vn 0.0657 -0.5398 0.8392
vn 0.0270 -0.3802 0.9245
vn 0.1809 -0.4389 0.8801
vn 0.2024 -0.5724 0.7946
vn -0.9660 -0.0271 0.2573
vn -0.9685 -0.1634 0.1877
vn -0.8890 -0.4495 0.0874
vn 0.2537 -0.3932 0.8838
vn 0.3130 -0.5165 0.7970
vn -0.0975 0.6117 -0.7851
vn -0.2816 0.4626 -0.8406
vn -0.6146 0.7621 0.2037
vn -0.2741 0.7228 0.6343
vn -0.3319 0.5037 -0.7976
vn -0.2924 0.3731 -0.8805
vn -0.2367 0.4349 -0.8688
vn -0.2300 0.5730 -0.7866
vn -0.4647 0.3391 -0.8180
vn -0.3888 0.2063 -0.8979
vn -0.3647 0.3433 -0.8655
vn -0.4311 0.4478 -0.7834
vn -0.5616 -0.8154 -0.1401
vn -0.7201 -0.6932 -0.0284
vn 0.5071 -0.4036 0.7616
vn 0.3266 -0.4501 0.8311
vn 0.3087 -0.9139 -0.2636
vn 0.4818 -0.5833 -0.6539
vn 0.3346 -0.3810 0.8619
vn 0.4217 -0.4716 0.7745
vn 0.1724 -0.6431 0.7462
vn 0.2609 -0.6672 0.6976
vn 0.3535 -0.6328 0.6889
vn -0.2158 0.7643 -0.6077
vn -0.1871 0.6520 0.7348
vn -0.3683 0.6199 -0.6929
vn -0.2825 0.6727 -0.6839
vn -0.4645 0.4894 -0.7381
vn -0.4422 0.5630 -0.6982
vn 0.5459 -0.5760 0.6085
vn 0.4697 -0.4677 -0.7488
vn 0.4433 -0.5868 0.6776
vn 0.8887 0.4210 -0.1814
vn 0.8979 0.3984 -0.1871
vn 0.6106 0.7695 0.1869
vn 0.5082 0.8496 0.1410
vn 0.9060 0.4038 0.1273
vn 0.6337 0.6597 0.4039
vn 0.5200 0.5596 0.6454
vn 0.5370 0.6542 0.5326
vn 0.4299 0.7386 0.5192
vn 0.3847 0.0785 0.9197
vn -0.1089 -0.0156 0.9939
vn 0.1933 -0.8748 0.4443
vn -0.7088 -0.6863 0.1631
vn -0.6569 -0.6672 -0.3513
vn -0.4171 -0.2719 0.8672
vn 0.0972 -0.9807 0.1696
vn -0.5994 -0.7880 -0.1405
vn 0.0984 -0.9938 0.0521
vn -0.4819 -0.8605 -0.1651
vn -0.4063 -0.7440 -0.5305
vn -0.5298 -0.6795 -0.5076
vn 0.1086 -0.9920 0.0642
vn -0.3604 -0.9079 -0.2143
vn 0.0754 -0.9731 -0.2176
vn -0.2585 -0.8840 -0.3896
vn -0.2036 -0.7439 -0.6365
vn -0.2754 -0.7905 -0.5470
vn -0.0085 -0.0745 -0.9972
vn -0.0343 0.1058 -0.9938
vn 0.6615 0.3145 -0.6809
vn 0.2478 0.9622 -0.1132
vn 0.2257 0.8952 0.3844
vn 0.0204 0.5126 -0.8584
vn 0.8692 0.4073 -0.2803
vn 0.3794 0.9156 0.1336
vn 0.3000 0.8082 0.5067
vn 0.4283 0.2435 0.8702
vn 0.3148 0.1578 0.9360
vn 0.2803 0.2918 0.9145
vn 0.3784 0.3600 0.8528
vn 0.5761 -0.8069 0.1306
vn 0.6851 -0.7253 0.0678
vn 0.8728 -0.4879 -0.0129
vn 0.2139 0.3221 0.9222
vn 0.2707 0.4463 0.8530
vn -0.4709 -0.3125 -0.8250
vn -0.2378 -0.4078 -0.8816
vn -0.2501 -0.9493 0.1903
vn -0.5552 -0.6570 0.5100
vn -0.2498 -0.4550 -0.8547
vn -0.1762 -0.3423 -0.9229
vn -0.2465 -0.3346 -0.9096
vn -0.3660 -0.3824 -0.8484
vn 0.0039 -0.4742 -0.8804
vn 0.0075 -0.3245 -0.9459
vn -0.1182 -0.3800 -0.9174
vn -0.1212 -0.4987 -0.8582
vn 0.9838 -0.0005 -0.1795
vn 0.9737 -0.2072 -0.0950
vn 0.0276 0.5464 0.8370
vn 0.2252 0.4117 0.8831
vn 0.6190 0.7668 -0.1695
vn 0.2342 0.8302 -0.5059
vn 0.1656 0.3762 0.9116
vn 0.1454 0.5046 0.8510
vn 0.5163 0.4245 0.7438
vn 0.4628 0.5192 0.7185
vn 0.3601 0.6091 0.7066
vn -0.6000 -0.5221 -0.6062
vn -0.4183 -0.4950 0.7616
vn -0.3411 -0.6147 -0.7112
vn -0.4581 -0.5397 -0.7064
vn -0.1067 -0.6525 -0.7502
vn -0.2142 -0.6510 -0.7282
vn 0.1378 0.7663 0.6276
vn 0.1571 0.6415 -0.7509
vn 0.2339 0.6654 0.7089
vn -0.7926 0.5790 -0.1912
vn -0.7875 0.5875 -0.1863
vn -0.9861 0.1177 0.1169
vn -0.9974 0.0110 0.0706
vn -0.8018 0.5832 0.1305
vn -0.9207 0.1755 0.3485
vn -0.8202 0.1736 0.5450
vn -0.9004 0.1450 0.4102
vn -0.9155 0.0106 0.4021
vn -0.2352 0.2733 0.9327
vn 0.0085 -0.0789 0.9968
vn 0.6624 0.5792 0.4750
vn 0.9476 -0.2195 0.2320
vn 0.9467 -0.2338 -0.2216
vn 0.3107 -0.1938 0.9306
vn 0.8025 0.5684 0.1812
vn 0.9931 -0.0950 -0.0681
vn 0.8104 0.5811 0.0746
vn 0.9953 0.0200 -0.0952
vn 0.9100 0.0134 -0.4145
vn 0.9161 -0.1231 -0.3816
vn 0.8042 0.5899 0.0726
vn 0.9826 0.1204 -0.1411
vn 0.8031 0.5538 -0.2201
vn 0.9279 0.1779 -0.3275
vn 0.8286 0.1764 -0.5314
vn 0.8955 0.1430 -0.4214
vn 0.0689 0.0576 -0.9960
vn -0.0222 -0.0950 -0.9952
vn -0.5899 0.4494 -0.6709
vn -0.9581 -0.2246 -0.1777
vn -0.9413 -0.2308 0.2465
vn -0.3130 -0.2025 -0.9279
vn -0.7692 0.5725 -0.2838
vn -0.9928 -0.1043 0.0589
vn -0.9180 -0.1281 0.3754
vn -0.4862 0.3007 0.8205
vn -0.3039 0.2361 0.9230
vn -0.4395 0.1271 0.8892
vn -0.5909 0.1777 0.7870
vn 0.4539 0.8738 0.1742
vn 0.3337 0.9368 0.1053
vn 0.0399 0.9991 0.0105
vn -0.4310 0.0286 0.9019
vn -0.6056 0.0168 0.7956
vn 0.5614 -0.3115 -0.7667
vn 0.4985 -0.0560 -0.8651
vn 0.9794 0.1307 0.1543
vn 0.7601 -0.1318 0.6364
vn 0.6036 0.0059 -0.7972
vn 0.4320 0.0144 -0.9017
vn 0.4631 -0.0771 -0.8829
vn 0.6052 -0.1557 -0.7807
vn 0.4941 0.2764 -0.8243
vn 0.3170 0.2024 -0.9266
vn 0.4453 0.1068 -0.8890
vn 0.5936 0.1620 -0.7883
vn -0.4411 0.8781 -0.1857
vn -0.2548 0.9629 -0.0887
vn -0.5695 -0.2852 0.7709
vn -0.5039 -0.0349 0.8631
vn -0.9776 0.1311 -0.1646
vn -0.7617 -0.1618 -0.6275
vn -0.4641 -0.0626 0.8836
vn -0.6103 -0.1429 0.7792
vn -0.6943 0.2368 0.6797
vn -0.7560 0.1452 0.6383
vn -0.7810 0.0111 0.6244
vn 0.8100 -0.2652 -0.5230
vn 0.5589 -0.1460 0.8162
vn 0.7771 0.0084 -0.6293
vn 0.7709 -0.1309 -0.6234
vn 0.7008 0.2308 -0.6749
vn 0.7535 0.1391 -0.6426
vn -0.8065 -0.2583 0.5318
vn -0.5580 -0.1629 -0.8137
vn -0.7742 -0.1284 0.6198
vn 0.3229 0.6512 0.6868
vn -0.4987 0.5148 0.6973
vn -0.6522 0.2712 0.7078
vn -0.7254 -0.0626 0.6854
vn 0.5381 0.4608 0.7058
vn 0.6918 0.2290 0.6848
vn -0.1700 -0.6745 0.7184
vn 0.0787 -0.7112 0.6985
vn 0.4265 -0.6070 0.6706
vn 0.3983 -0.9096 -0.1186
vn -0.2661 -0.9581 -0.1060
vn -0.5598 -0.8207 -0.1139
vn 0.1560 -0.9811 -0.1141
vn -0.9893 0.1032 -0.1030
vn -0.3777 0.9155 -0.1383
vn -0.9290 0.3558 -0.1019
vn -0.6864 0.7162 -0.1260
vn 0.5677 0.8157 -0.1111
vn 0.9856 -0.0966 -0.1386
vn 0.7485 0.6522 -0.1200
vn 0.9525 0.2678 -0.1450
vn 0.5269 0.8479 -0.0583
vn 0.7539 0.6551 -0.0510
vn 0.9602 0.2696 -0.0734
vn 0.9956 -0.0325 -0.0882
vn 0.4882 0.8727 0.0106
vn 0.7561 0.6538 0.0308
vn 0.9627 0.2704 0.0106
vn 0.9993 0.0312 -0.0228
vn 0.4569 -0.8865 -0.0728
vn 0.1417 -0.9886 -0.0500
vn -0.2820 -0.9586 -0.0389
vn -0.4985 -0.8643 -0.0673
vn 0.5144 -0.8575 -0.0044
vn 0.1261 -0.9914 0.0350
vn -0.2963 -0.9541 0.0437
vn -0.4344 -0.9007 -0.0022
vn -0.9975 0.0429 -0.0553
vn -0.9305 0.3645 -0.0364
vn -0.6847 0.7263 -0.0599
vn -0.4331 0.8970 -0.0891
vn -0.9997 -0.0180 0.0173
vn -0.9268 0.3720 0.0511
vn -0.6792 0.7335 0.0258
vn -0.4957 0.8682 -0.0228
# 301 vertex normals

g Cylinder02
s 1
f 1//1 2//2 3//3 4//4 
f 2//2 5//5 6//6 3//3 
f 5//5 7//7 8//8 6//6 
f 7//7 9//9 10//10 8//8 
f 9//9 11//11 12//12 10//10 
f 11//11 13//13 14//14 12//12 
f 13//13 15//15 16//16 14//14 
f 15//15 17//17 18//18 16//16 
f 17//17 19//19 20//20 18//18 
f 19//19 21//21 22//22 20//20 
f 21//21 23//23 24//24 22//22 
f 23//23 1//1 4//4 24//24 
f 4//4 3//3 25//25 
f 3//3 6//6 25//25 
f 6//6 8//8 25//25 
f 8//8 10//10 25//25 
f 10//10 12//12 25//25 
f 12//12 14//14 25//25 
f 14//14 16//16 25//25 
f 16//16 18//18 25//25 
f 18//18 20//20 25//25 
f 20//20 22//22 25//25 
f 22//22 24//24 25//25 
f 24//24 4//4 25//25 
f 26//26 27//27 28//28 29//29 
f 30//30 31//31 28//28 27//27 
f 32//32 33//33 28//28 31//31 
f 34//34 29//29 28//28 33//33 
f 30//30 35//35 36//36 31//31 
f 37//37 38//38 36//36 35//35 
f 39//39 40//40 36//36 38//38 
f 32//32 31//31 36//36 40//40 
f 37//37 41//41 42//42 38//38 
f 43//43 44//44 42//42 41//41 
f 45//45 46//46 42//42 44//44 
f 39//39 38//38 42//42 46//46 
f 43//43 47//47 48//48 44//44 
f 49//49 50//50 48//48 47//47 
f 51//51 52//52 48//48 50//50 
f 45//45 44//44 48//48 52//52 
f 49//49 53//53 54//54 50//50 
f 55//55 56//56 54//54 53//53 
f 57//57 58//58 54//54 56//56 
f 51//51 50//50 54//54 58//58 
f 55//55 59//59 60//60 56//56 
f 26//26 29//29 60//60 59//59 
f 34//34 61//61 60//60 29//29 
f 57//57 56//56 60//60 61//61 
f 62//62 63//63 64//64 65//65 
f 66//66 67//67 64//64 63//63 
f 68//68 69//69 64//64 67//67 
f 70//70 65//65 64//64 69//69 
f 71//71 72//72 73//73 74//74 
f 66//66 63//63 73//73 72//72 
f 62//62 74//74 73//73 63//63 
f 75//75 76//76 77//77 78//78 
f 68//68 67//67 77//77 76//76 
f 66//66 72//72 77//77 67//67 
f 71//71 78//78 77//77 72//72 
f 79//79 80//80 81//81 82//82 
f 83//83 84//84 81//81 80//80 
f 68//68 76//76 81//81 84//84 
f 75//75 82//82 81//81 76//76 
f 85//85 86//86 87//87 88//88 
f 83//83 80//80 87//87 86//86 
f 79//79 88//88 87//87 80//80 
f 70//70 69//69 89//89 90//90 
f 68//68 84//84 89//89 69//69 
f 83//83 86//86 89//89 84//84 
f 85//85 90//90 89//89 86//86 
f 32//32 91//91 92//92 33//33 
f 62//62 65//65 92//92 91//91 
f 70//70 93//93 92//92 65//65 
f 34//34 33//33 92//92 93//93 
f 39//39 94//94 95//95 40//40 
f 71//71 74//74 95//95 94//94 
f 62//62 91//91 95//95 74//74 
f 32//32 40//40 95//95 91//91 
f 45//45 96//96 97//97 46//46 
f 75//75 78//78 97//97 96//96 
f 71//71 94//94 97//97 78//78 
f 39//39 46//46 97//97 94//94 
f 51//51 98//98 99//99 52//52 
f 79//79 82//82 99//99 98//98 
f 75//75 96//96 99//99 82//82 
f 45//45 52//52 99//99 96//96 
f 57//57 100//100 101//101 58//58 
f 85//85 88//88 101//101 100//100 
f 79//79 98//98 101//101 88//88 
f 51//51 58//58 101//101 98//98 
f 34//34 93//93 102//102 61//61 
f 70//70 90//90 102//102 93//93 
f 85//85 100//100 102//102 90//90 
f 57//57 61//61 102//102 100//100 
f 103//103 104//104 105//105 106//106 
f 107//107 108//108 105//105 104//104 
f 109//109 110//110 105//105 108//108 
f 111//111 106//106 105//105 110//110 
f 107//107 112//112 113//113 108//108 
f 114//114 115//115 113//113 112//112 
f 116//116 117//117 113//113 115//115 
f 109//109 108//108 113//113 117//117 
f 114//114 118//118 119//119 115//115 
f 120//120 121//121 119//119 118//118 
f 122//122 123//123 119//119 121//121 
f 116//116 115//115 119//119 123//123 
f 120//120 124//124 125//125 121//121 
f 126//126 127//127 125//125 124//124 
f 128//128 129//129 125//125 127//127 
f 122//122 121//121 125//125 129//129 
f 126//126 130//130 131//131 127//127 
f 132//132 133//133 131//131 130//130 
f 134//134 135//135 131//131 133//133 
f 128//128 127//127 131//131 135//135 
f 132//132 136//136 137//137 133//133 
f 103//103 106//106 137//137 136//136 
f 111//111 138//138 137//137 106//106 
f 134//134 133//133 137//137 138//138 
f 139//139 140//140 141//141 142//142 
f 143//143 144//144 141//141 140//140 
f 145//145 146//146 141//141 144//144 
f 147//147 142//142 141//141 146//146 
f 148//148 149//149 150//150 151//151 
f 143//143 140//140 150//150 149//149 
f 139//139 151//151 150//150 140//140 
f 152//152 153//153 154//154 155//155 
f 145//145 144//144 154//154 153//153 
f 143//143 149//149 154//154 144//144 
f 148//148 155//155 154//154 149//149 
f 156//156 157//157 158//158 159//159 
f 160//160 161//161 158//158 157//157 
f 145//145 153//153 158//158 161//161 
f 152//152 159//159 158//158 153//153 
f 162//162 163//163 164//164 165//165 
f 160//160 157//157 164//164 163//163 
f 156//156 165//165 164//164 157//157 
f 147//147 146//146 166//166 167//167 
f 145//145 161//161 166//166 146//146 
f 160//160 163//163 166//166 161//161 
f 162//162 167//167 166//166 163//163 
f 109//109 168//168 169//169 110//110 
f 139//139 142//142 169//169 168//168 
f 147//147 170//170 169//169 142//142 
f 111//111 110//110 169//169 170//170 
f 116//116 171//171 172//172 117//117 
f 148//148 151//151 172//172 171//171 
f 139//139 168//168 172//172 151//151 
f 109//109 117//117 172//172 168//168 
f 122//122 173//173 174//174 123//123 
f 152//152 155//155 174//174 173//173 
f 148//148 171//171 174//174 155//155 
f 116//116 123//123 174//174 171//171 
f 128//128 175//175 176//176 129//129 
f 156//156 159//159 176//176 175//175 
f 152//152 173//173 176//176 159//159 
f 122//122 129//129 176//176 173//173 
f 134//134 177//177 178//178 135//135 
f 162//162 165//165 178//178 177//177 
f 156//156 175//175 178//178 165//165 
f 128//128 135//135 178//178 175//175 
f 111//111 170//170 179//179 138//138 
f 147//147 167//167 179//179 170//170 
f 162//162 177//177 179//179 167//167 
f 134//134 138//138 179//179 177//177 
f 180//180 181//181 182//182 183//183 
f 184//184 185//185 182//182 181//181 
f 186//186 187//187 182//182 185//185 
f 188//188 183//183 182//182 187//187 
f 184//184 189//189 190//190 185//185 
f 191//191 192//192 190//190 189//189 
f 193//193 194//194 190//190 192//192 
f 186//186 185//185 190//190 194//194 
f 191//191 195//195 196//196 192//192 
f 197//197 198//198 196//196 195//195 
f 199//199 200//200 196//196 198//198 
f 193//193 192//192 196//196 200//200 
f 197//197 201//201 202//202 198//198 
f 203//203 204//204 202//202 201//201 
f 205//205 206//206 202//202 204//204 
f 199//199 198//198 202//202 206//206 
f 203//203 207//207 208//208 204//204 
f 209//209 210//210 208//208 207//207 
f 211//211 212//212 208//208 210//210 
f 205//205 204//204 208//208 212//212 
f 209//209 213//213 214//214 210//210 
f 180//180 183//183 214//214 213//213 
f 188//188 215//215 214//214 183//183 
f 211//211 210//210 214//214 215//215 
f 216//216 217//217 218//218 219//219 
f 220//220 221//221 218//218 217//217 
f 222//222 223//223 218//218 221//221 
f 224//224 219//219 218//218 223//223 
f 225//225 226//226 227//227 228//228 
f 220//220 217//217 227//227 226//226 
f 216//216 228//228 227//227 217//217 
f 229//229 230//230 231//231 232//232 
f 222//222 221//221 231//231 230//230 
f 220//220 226//226 231//231 221//221 
f 225//225 232//232 231//231 226//226 
f 233//233 234//234 235//235 236//236 
f 237//237 238//238 235//235 234//234 
f 222//222 230//230 235//235 238//238 
f 229//229 236//236 235//235 230//230 
f 239//239 240//240 241//241 242//242 
f 237//237 234//234 241//241 240//240 
f 233//233 242//242 241//241 234//234 
f 224//224 223//223 243//243 244//244 
f 222//222 238//238 243//243 223//223 
f 237//237 240//240 243//243 238//238 
f 239//239 244//244 243//243 240//240 
f 186//186 245//245 246//246 187//187 
f 216//216 219//219 246//246 245//245 
f 224//224 247//247 246//246 219//219 
f 188//188 187//187 246//246 247//247 
f 193//193 248//248 249//249 194//194 
f 225//225 228//228 249//249 248//248 
f 216//216 245//245 249//249 228//228 
f 186//186 194//194 249//249 245//245 
f 199//199 250//250 251//251 200//200 
f 229//229 232//232 251//251 250//250 
f 225//225 248//248 251//251 232//232 
f 193//193 200//200 251//251 248//248 
f 205//205 252//252 253//253 206//206 
f 233//233 236//236 253//253 252//252 
f 229//229 250//250 253//253 236//236 
f 199//199 206//206 253//253 250//250 
f 211//211 254//254 255//255 212//212 
f 239//239 242//242 255//255 254//254 
f 233//233 252//252 255//255 242//242 
f 205//205 212//212 255//255 252//252 
f 188//188 247//247 256//256 215//215 
f 224//224 244//244 256//256 247//247 
f 239//239 254//254 256//256 244//244 
f 211//211 215//215 256//256 254//254 
f 132//132 130//130 5//5 2//2 
f 130//130 126//126 5//5 
f 126//126 7//7 5//5 
f 55//55 53//53 13//13 11//11 
f 53//53 49//49 13//13 
f 49//49 15//15 13//13 
f 209//209 207//207 21//21 19//19 
f 207//207 203//203 21//21 
f 203//203 23//23 21//21 
f 257//257 189//189 258//258 259//259 
f 257//257 259//259 260//260 35//35 
f 261//261 257//257 35//35 262//262 
f 262//262 35//35 263//263 264//264 
f 262//262 264//264 265//265 112//112 
f 263//263 35//35 30//30 
f 265//265 114//114 112//112 
f 260//260 37//37 35//35 
f 189//189 184//184 258//258 
f 257//257 191//191 189//189 
f 112//112 107//107 262//262 
f 126//126 124//124 266//266 7//7 
f 11//11 9//9 267//267 268//268 
f 269//269 7//7 266//266 
f 9//9 7//7 269//269 267//267 
f 59//59 55//55 11//11 268//268 
f 49//49 47//47 270//270 15//15 
f 19//19 271//271 213//213 209//209 
f 272//272 15//15 270//270 
f 19//19 17//17 273//273 271//271 
f 17//17 15//15 272//272 273//273 
f 274//274 23//23 203//203 201//201 
f 136//136 132//132 2//2 275//275 
f 276//276 23//23 274//274 
f 2//2 1//1 277//277 275//275 
f 1//1 23//23 276//276 277//277 
f 201//201 197//197 278//278 274//274 
f 274//274 278//278 279//279 276//276 
f 279//279 280//280 277//277 276//276 
f 275//275 277//277 280//280 281//281 
f 275//275 281//281 103//103 136//136 
f 197//197 195//195 282//282 278//278 
f 278//278 282//282 283//283 279//279 
f 283//283 284//284 280//280 279//279 
f 281//281 280//280 284//284 285//285 
f 281//281 285//285 104//104 103//103 
f 195//195 191//191 257//257 282//282 
f 282//282 257//257 261//261 283//283 
f 261//261 262//262 284//284 283//283 
f 284//284 262//262 285//285 
f 285//285 262//262 107//107 104//104 
f 124//124 120//120 286//286 266//266 
f 266//266 286//286 287//287 269//269 
f 287//287 288//288 267//267 269//269 
f 268//268 267//267 288//288 289//289 
f 268//268 289//289 26//26 59//59 
f 120//120 118//118 290//290 286//286 
f 286//286 290//290 291//291 287//287 
f 291//291 292//292 288//288 287//287 
f 289//289 288//288 292//292 293//293 
f 289//289 293//293 27//27 26//26 
f 118//118 114//114 265//265 290//290 
f 290//290 265//265 264//264 291//291 
f 264//264 263//263 292//292 291//291 
f 292//292 263//263 293//293 
f 293//293 263//263 30//30 27//27 
f 47//47 43//43 294//294 270//270 
f 270//270 294//294 295//295 272//272 
f 295//295 296//296 273//273 272//272 
f 271//271 273//273 296//296 297//297 
f 271//271 297//297 180//180 213//213 
f 43//43 41//41 298//298 294//294 
f 294//294 298//298 299//299 295//295 
f 299//299 300//300 296//296 295//295 
f 297//297 296//296 300//300 301//301 
f 297//297 301//301 181//181 180//180 
f 41//41 37//37 260//260 298//298 
f 298//298 260//260 259//259 299//299 
f 259//259 258//258 300//300 299//299 
f 300//300 258//258 301//301 
f 301//301 258//258 184//184 181//181 
# 284 polygons - 30 triangles

